^C:\USERS\CDS\DESKTOP\GALAXSEEUNITYEDITED\DLLVISUALSTUDIO\UNITYDLLEXAMPLE\STDAFX.CPP
/c /Zi /nologo /W3 /WX- /diagnostics:classic /O2 /Oi /GL /D NDEBUG /D _WINDOWS /D _USRDLL /D UNITYDLLEXAMPLE_EXPORTS /D _WINDLL /D _UNICODE /D UNICODE /Gm- /EHsc /MD /GS /Gy /fp:precise /Zc:wchar_t /Zc:forScope /Zc:inline /openmp /Yc"stdafx.h" /Fp"X64\RELEASE\UNITYDLLEXAMPLE.PCH" /Fo"X64\RELEASE\\" /Fd"X64\RELEASE\VC141.PDB" /Gd /TP /FC C:\USERS\CDS\DESKTOP\GALAXSEEUNITYEDITED\DLLVISUALSTUDIO\UNITYDLLEXAMPLE\STDAFX.CPP
^C:\USERS\CDS\DESKTOP\GALAXSEEUNITYEDITED\DLLVISUALSTUDIO\UNITYDLLEXAMPLE\DLLMAIN.CPP
/c /Zi /nologo /W3 /WX- /diagnostics:classic /O2 /Oi /GL /D NDEBUG /D _WINDOWS /D _USRDLL /D UNITYDLLEXAMPLE_EXPORTS /D _WINDLL /D _UNICODE /D UNICODE /Gm- /EHsc /MD /GS /Gy /fp:precise /Zc:wchar_t /Zc:forScope /Zc:inline /openmp /Fo"X64\RELEASE\\" /Fd"X64\RELEASE\VC141.PDB" /Gd /TP /FC C:\USERS\CDS\DESKTOP\GALAXSEEUNITYEDITED\DLLVISUALSTUDIO\UNITYDLLEXAMPLE\DLLMAIN.CPP
^C:\USERS\CDS\DESKTOP\GALAXSEEUNITYEDITED\DLLVISUALSTUDIO\UNITYDLLEXAMPLE\UNITYDLLEXAMPLE.CPP
/c /Zi /nologo /W3 /WX- /diagnostics:classic /O2 /Oi /GL /D NDEBUG /D _WINDOWS /D _USRDLL /D UNITYDLLEXAMPLE_EXPORTS /D _WINDLL /D _UNICODE /D UNICODE /Gm- /EHsc /MD /GS /Gy /fp:precise /Zc:wchar_t /Zc:forScope /Zc:inline /openmp /Yu"stdafx.h" /Fp"X64\RELEASE\UNITYDLLEXAMPLE.PCH" /Fo"X64\RELEASE\\" /Fd"X64\RELEASE\VC141.PDB" /Gd /TP /FC C:\USERS\CDS\DESKTOP\GALAXSEEUNITYEDITED\DLLVISUALSTUDIO\UNITYDLLEXAMPLE\UNITYDLLEXAMPLE.CPP
