^C:\USERS\CDS\DESKTOP\GALAXSEEUNITYEDITED\DLLVISUALSTUDIO\UNITYDLLEXAMPLE\X64\RELEASE\DLLMAIN.OBJ|C:\USERS\CDS\DESKTOP\GALAXSEEUNITYEDITED\DLLVISUALSTUDIO\UNITYDLLEXAMPLE\X64\RELEASE\STDAFX.OBJ|C:\USERS\CDS\DESKTOP\GALAXSEEUNITYEDITED\DLLVISUALSTUDIO\UNITYDLLEXAMPLE\X64\RELEASE\UNITYDLLEXAMPLE.OBJ
C:\USERS\CDS\DESKTOP\GALAXSEEUNITYEDITED\DLLVISUALSTUDIO\X64\RELEASE\UNITYDLLEXAMPLE.DLL
C:\USERS\CDS\DESKTOP\GALAXSEEUNITYEDITED\DLLVISUALSTUDIO\X64\RELEASE\UNITYDLLEXAMPLE.PDB
